-1.95, 1, 0, 0, 0.2
-1.95, 1, 2.08264e-05, 2.08264e-06, 0.4
-1.94994, 0.999976, 0.00110122, 8.92541e-05, 0.6
-1.9492, 0.999736, 0.00844898, 0.000776404, 0.8
-1.94526, 0.998483, 0.0339916, 0.00381059, 1
-1.93358, 0.994692, 0.0888181, 0.0135445, 1.2
-1.90725, 0.985769, 0.179709, 0.038052, 1.4
-1.8575, 0.967077, 0.31875, 0.112269, 1.6
-1.77289, 0.929474, 0.516645, 0.356664, 1.8
-1.633, 0.841971, 0.907882, 2.33021, 2
-1.38669, 0.495322, 1.40924, 29.102, 2.2
-1.14321, 0.177064, 0.967882, 10.4837, 2.4
-0.984967, 0.106081, 0.640182, 3.74952, 2.6
-0.875472, 0.0785581, 0.487043, 1.98924, 2.8
-0.789898, 0.064315, 0.369591, 1.26146, 3
-0.722989, 0.055434, 0.305935, 0.86504, 3.2
-0.663462, 0.0489525, 0.253686, 0.634915, 3.4
-0.617689, 0.0456104, 0.216315, 0.535024, 3.6
-0.575875, 0.0421836, 0.184357, 0.437534, 3.8
-0.539387, 0.0397147, 0.169886, 0.361026, 4
-0.5099, 0.0385486, 0.148206, 0.319518, 4.2
-0.483292, 0.0372237, 0.130154, 0.284942, 4.4
-0.458698, 0.0350667, 0.114915, 0.248343, 4.6
-0.436894, 0.0341313, 0.103438, 0.2242, 4.8
-0.41551, 0.0331361, 0.0942525, 0.199917, 5
