 -0.90617984593866396       0.23692688505618173     
 -0.53846931010568311       0.47862867049936647     
   0.0000000000000000       0.56888888888888889     
  0.53846931010568311       0.47862867049936647     
  0.90617984593866396       0.23692688505618173     
