\relax 
\@writefile{toc}{\contentsline {section}{Problem 1}{2}}
\@writefile{toc}{\contentsline {section}{Problem 2}{2}}
\newlabel{eq:potentials}{{1}{2}}
\@writefile{toc}{\contentsline {section}{Problem 3}{2}}
\newlabel{eq:general_circuit}{{3}{2}}
\newlabel{eq:dumped_oscill}{{4}{3}}
\@writefile{toc}{\contentsline {section}{Problem 4}{3}}
\newlabel{eq:armonic_simple}{{5}{3}}
\@writefile{lof}{\contentsline {figure}{\numberline {1}{\ignorespaces Armonic oscillating circuit}}{3}}
\newlabel{fig:armonic}{{1}{3}}
\@writefile{toc}{\contentsline {section}{Problem 5}{3}}
\newlabel{eq:tot_energy}{{7}{3}}
\@writefile{lof}{\contentsline {figure}{\numberline {2}{\ignorespaces The current in function of time in a dumped force system}}{4}}
\newlabel{fig:forced_I}{{2}{4}}
\@writefile{lof}{\contentsline {figure}{\numberline {3}{\ignorespaces The charge in function of time in a dumped force system}}{4}}
\newlabel{fig:forced_Q}{{3}{4}}
\@writefile{lof}{\contentsline {figure}{\numberline {4}{\ignorespaces The phase space in a dumped force system}}{4}}
\newlabel{fig:forced_QI}{{4}{4}}
\@writefile{toc}{\contentsline {section}{Problem 6}{5}}
\@writefile{toc}{\contentsline {section}{Problem 7}{5}}
\@writefile{lof}{\contentsline {figure}{\numberline {5}{\ignorespaces Vibrations with the initial conditions}}{6}}
\newlabel{fig:0_vibrations}{{5}{6}}
\@writefile{lof}{\contentsline {figure}{\numberline {6}{\ignorespaces Vibrations with the initial conditions}}{6}}
\newlabel{fig:1_vibrations}{{6}{6}}
\@writefile{toc}{\contentsline {section}{Problem 8}{6}}
\@writefile{lof}{\contentsline {figure}{\numberline {7}{\ignorespaces Vibrations with the initial conditions}}{7}}
\newlabel{fig:2_vibrations}{{7}{7}}
\@writefile{lof}{\contentsline {figure}{\numberline {8}{\ignorespaces Vibrations with the initial conditions}}{7}}
\newlabel{fig:3_vibrations}{{8}{7}}
\@writefile{toc}{\contentsline {section}{Problem 9}{7}}
\@writefile{toc}{\contentsline {section}{Problem 10}{8}}
\@writefile{lof}{\contentsline {figure}{\numberline {9}{\ignorespaces The four normal modes with lower frequency. The x-axis what mass we are focusing on and on the y-axis the value of $X_i$}}{8}}
\newlabel{fig:1_vibrations}{{9}{8}}
\@writefile{lol}{\contentsline {lstlisting}{code/linear\textunderscore equations.py}{9}}
\@writefile{lol}{\contentsline {lstlisting}{code/differential\textunderscore solver.py}{12}}
\@writefile{lol}{\contentsline {lstlisting}{code/Lorenzo\textunderscore Biasi\textunderscore code\textunderscore 2.py}{12}}
