\relax 
\@writefile{toc}{\contentsline {section}{Problem 1}{2}}
\@writefile{lof}{\contentsline {figure}{\numberline {1}{\ignorespaces The trajectories for the interactive and non interactive systems with $dt = 0.01$ s and $N_t = 200$. The dashed lines indicate the non interacting molecules\relax }}{2}}
\providecommand*\caption@xref[2]{\@setref\relax\@undefined{#1}}
\newlabel{fig:p1}{{1}{2}}
\@writefile{toc}{\contentsline {section}{Problem 2}{2}}
\@writefile{lof}{\contentsline {figure}{\numberline {2}{\ignorespaces System with $N_t = 1000$\relax }}{3}}
\newlabel{fig:fig_2a}{{2}{3}}
\@writefile{lof}{\contentsline {figure}{\numberline {3}{\ignorespaces System with $N_t = 2000$\relax }}{3}}
\newlabel{fig:fig_2b}{{3}{3}}
\@writefile{toc}{\contentsline {section}{Problem 3}{3}}
\@writefile{toc}{\contentsline {section}{Problem 4}{3}}
\@writefile{toc}{\contentsline {section}{Problem 5}{3}}
\@writefile{lof}{\contentsline {figure}{\numberline {4}{\ignorespaces Relative energy for the system with $N_t = 100$ and $t = 0.01$ s\relax }}{4}}
\newlabel{fig:fig_3a}{{4}{4}}
\@writefile{lof}{\contentsline {figure}{\numberline {5}{\ignorespaces Relative energy for the system with $N_t = 1000$ and $t = 0.001$ s\relax }}{4}}
\newlabel{fig:fig_3b}{{5}{4}}
\@writefile{lof}{\contentsline {figure}{\numberline {6}{\ignorespaces Module of the velocity of the center of mass for the system with $N_t = 100$ and $t = 0.01$ s\relax }}{4}}
\newlabel{fig:fig_3c}{{6}{4}}
\@writefile{lof}{\contentsline {figure}{\numberline {7}{\ignorespaces Module of the velocity of the center of mass for the system with $N_t = 1000$ and $t = 0.001$ s\relax }}{4}}
\newlabel{fig:fig_3d}{{7}{4}}
\@writefile{lof}{\contentsline {figure}{\numberline {8}{\ignorespaces It shows the potential and kinetic energy averaged over time per particle\relax }}{5}}
\newlabel{fig:p4}{{8}{5}}
\@writefile{lof}{\contentsline {figure}{\numberline {9}{\ignorespaces Positions of the particle in the system initial velocity = 0\relax }}{6}}
\newlabel{fig:fig_5a}{{9}{6}}
\@writefile{lof}{\contentsline {figure}{\numberline {10}{\ignorespaces Trajectory of three particles\relax }}{6}}
\newlabel{fig:fig_5b}{{10}{6}}
\@writefile{lof}{\contentsline {figure}{\numberline {11}{\ignorespaces The trajectory of the molecules with initial velocity around 2 m / s\relax }}{6}}
\newlabel{fig:v2}{{11}{6}}
\@writefile{toc}{\contentsline {section}{Problem 6}{6}}
\@writefile{lof}{\contentsline {figure}{\numberline {12}{\ignorespaces Distribution of the walkers\relax }}{7}}
\newlabel{fig:p6}{{12}{7}}
\@writefile{toc}{\contentsline {section}{Problem 7}{7}}
\@writefile{toc}{\contentsline {section}{Problem 8}{7}}
\@writefile{lof}{\contentsline {figure}{\numberline {13}{\ignorespaces How the energy evolves with the walkers initially distributed uniformly between -1 and 1\relax }}{8}}
\newlabel{fig:p8}{{13}{8}}
\@writefile{lof}{\contentsline {figure}{\numberline {14}{\ignorespaces How the energy evolves with the walkers initially all in 0\relax }}{8}}
\newlabel{fig:p8b}{{14}{8}}
\@writefile{lof}{\contentsline {figure}{\numberline {15}{\ignorespaces The wave function with the algorithm used in class and walkers starting distributed uniformly\relax }}{8}}
\newlabel{fig:p9a}{{15}{8}}
\@writefile{lof}{\contentsline {figure}{\numberline {16}{\ignorespaces The wave function with the algorithm used in class and walkers starting distributed all in 0\relax }}{8}}
\newlabel{fig:p9b}{{16}{8}}
\@writefile{lof}{\contentsline {figure}{\numberline {17}{\ignorespaces The wave function with the time average\relax }}{9}}
\newlabel{fig:p9c}{{17}{9}}
\@writefile{lol}{\contentsline {lstlisting}{code/molecular\textunderscore dynamics.py}{9}}
\@writefile{lol}{\contentsline {lstlisting}{code/MC\textunderscore diffusion.py}{17}}
