\relax 
\@writefile{toc}{\contentsline {section}{Problem 1}{2}}
\@writefile{toc}{\contentsline {section}{Problem 2}{2}}
\@writefile{toc}{\contentsline {section}{Problem 3}{2}}
\newlabel{eq:partial_analytical}{{1}{2}}
\newlabel{eq:partial_numerical}{{2}{2}}
\@writefile{lof}{\contentsline {figure}{\numberline {1}{\ignorespaces The vibration of the string with the three modes. n = 1 is in blue, n = 2 is in orange and n = 3 is in green}}{3}}
\newlabel{fig:vibration}{{1}{3}}
\newlabel{eq:result}{{3}{3}}
\@writefile{toc}{\contentsline {section}{Problem 4}{3}}
\newlabel{eq:u_minus_time}{{4}{3}}
\@writefile{toc}{\contentsline {section}{Problem 5}{3}}
\@writefile{lof}{\contentsline {figure}{\numberline {2}{\ignorespaces }}{4}}
\newlabel{fig:3Dwave}{{2}{4}}
\@writefile{toc}{\contentsline {section}{Problem 6}{5}}
\@writefile{lot}{\contentsline {table}{\numberline {1}{\ignorespaces }}{5}}
\newlabel{tab:myfirsttable}{{1}{5}}
\@writefile{lot}{\contentsline {table}{\numberline {2}{\ignorespaces In this table we show the probabilities at T=1 J / $k_B$. We omitted the energies higher than 2 since the probabilities are present just for the exact calculation and are really close to 0}}{5}}
\newlabel{tab:p1}{{2}{5}}
\@writefile{lot}{\contentsline {table}{\numberline {3}{\ignorespaces In this table we show the probabilities at T=5 J / $k_B$}}{6}}
\newlabel{tab:p5}{{3}{6}}
\@writefile{lof}{\contentsline {figure}{\numberline {3}{\ignorespaces The degenerations at T = 1 J / $k_B$}}{6}}
\newlabel{fig:degen}{{3}{6}}
\@writefile{toc}{\contentsline {section}{Problem 7}{6}}
\@writefile{lof}{\contentsline {figure}{\numberline {4}{\ignorespaces The evolution of the system for every iteration in case all the spins aligned as a starting condiion}}{7}}
\newlabel{fig:aligned}{{4}{7}}
\@writefile{lof}{\contentsline {figure}{\numberline {5}{\ignorespaces The evolution of the system for every iteration in case all the spins aligned as a starting condiion}}{7}}
\newlabel{fig:random}{{5}{7}}
\@writefile{toc}{\contentsline {section}{Problem 8 and 9}{7}}
\@writefile{lof}{\contentsline {figure}{\numberline {6}{\ignorespaces The macroscopical propeties of the system in function of the temperature. N is the number of cells}}{8}}
\newlabel{fig:ising_varing}{{6}{8}}
\@writefile{lof}{\contentsline {figure}{\numberline {7}{\ignorespaces The black cells rappresent positive spin and the white negative.}}{9}}
\newlabel{fig:syst_18}{{7}{9}}
\@writefile{toc}{\contentsline {section}{Problem 10}{9}}
\@writefile{lof}{\contentsline {figure}{\numberline {8}{\ignorespaces The black cells rappresent positive spin and the white negative.}}{10}}
\newlabel{fig:syst_22}{{8}{10}}
\@writefile{lof}{\contentsline {figure}{\numberline {9}{\ignorespaces The black cells rappresent positive spin and the white negative.}}{10}}
\newlabel{fig:syst_50}{{9}{10}}
\@writefile{lol}{\contentsline {lstlisting}{code/ising\textunderscore model.cpp}{11}}
\@writefile{lol}{\contentsline {lstlisting}{code/Lorenzo\textunderscore Biasi\textunderscore code\textunderscore 3.py}{14}}
